ch2_voucher
…
##  Attaching packages  tidyverse 1.3.1 

##  ggplot2 3.3.3      purrr   0.3.4
##  tibble  3.1.1      dplyr   1.0.5
##  tidyr   1.1.3      stringr 1.4.0
##  readr   1.4.0      forcats 0.5.1

##  Conflicts  tidyverse_conflicts() 
## x dplyr::filter() masks stats::filter()
## x dplyr::lag()    masks stats::lag()

data(vouchers)
vouchers

## # A tibble: 25,330 x 89
##       ID BOG95SMP BOG97SMP JAM93SMP   SEX   AGE  AGE2 HSVISIT SCYFNSH INSCHL
##    <dbl>    <dbl>    <dbl>    <dbl> <dbl> <dbl> <dbl>   <dbl>   <dbl>  <dbl>
##  1    NA        0        0        0    NA    NA    NA      NA       5     NA
##  2     1        0        0        0     1    NA    12      NA       5     NA
##  3     2        0        0        0     0    NA    13      NA       5     NA
##  4     3        1        0        0     0    14    12       0       8      1
##  5     4        1        0        0     1    14    12       0       8      1
##  6     5        1        0        0     0    14    12       0       8      1
##  7     6        1        0        0     0    12    10       0       7      1
##  8     7        0        0        0     1    NA    13      NA       5     NA
##  9     8        0        0        0     1    NA    12      NA       5     NA
## 10     9        0        0        0     1    NA    13      NA       5     NA
## #  with 25,320 more rows, and 79 more variables: PRSCH_C <dbl>,
## #   PRSCHA_1 <dbl>, PRSCHA_2 <dbl>, VOUCH0 <dbl>, BOG95ASD <dbl>,
## #   BOG97ASD <dbl>, JAM93ASD <dbl>, DBOGOTA <dbl>, DJAMUNDI <dbl>, D1995 <dbl>,
## #   D1997 <dbl>, RESPONSE <dbl>, TEST_TAK <dbl>, SEX_NAME <dbl>, SVY <dbl>,
## #   D1993 <dbl>, PHONE <dbl>, DAREA1 <dbl>, DAREA2 <dbl>, DAREA3 <dbl>,
## #   DAREA4 <dbl>, DAREA5 <dbl>, DAREA6 <dbl>, DAREA7 <dbl>, DAREA8 <dbl>,
## #   DAREA9 <dbl>, DAREA10 <dbl>, DAREA11 <dbl>, DAREA12 <dbl>, DAREA13 <dbl>,
## #   DAREA14 <dbl>, DAREA15 <dbl>, DAREA16 <dbl>, DAREA17 <dbl>, DAREA18 <dbl>,
## #   DAREA19 <dbl>, DMONTH1 <dbl>, DMONTH2 <dbl>, DMONTH3 <dbl>, DMONTH4 <dbl>,
…
